dump.vcd
$date
	Fri Jul 11 12:15:09 2025
$end

$version
	Synopsys VCS version U-2023.03-SP2_Full64
$end

$timescale
	1ns
$end

$comment Csum: 1 1acd3d1560151451 $end


$scope module $unit $end
$upscope $end


$scope module tb_top_packet_divider_transmit $end
$var reg 32 ! freq [31:0] $end
$var reg 1 " clk $end
$var reg 1 # rst_n $end
$var real 64 $ h_time_p $end

$scope begin unnamed$$_vcs_0 $end
$upscope $end


$scope begin unnamed$$_vcs_2 $end
$upscope $end


$scope begin unnamed$$_vcs_1 $end
$upscope $end


$scope begin unnamed$$_vcs_3 $end
$upscope $end


$scope begin unnamed$$_vcs_4 $end
$upscope $end


$scope begin unnamed$$_vcs_5 $end
$upscope $end


$scope module tx_vintf $end
$var reg 1 % clk $end
$var reg 1 # rst_n $end
$var reg 1 & tx_en $end
$var reg 8 ' tx_data [7:0] $end
$var reg 1 ( addr $end
$var reg 8 ) wr_data [7:0] $end
$var reg 1 * wr $end
$var reg 1 + rd $end
$upscope $end


$scope module tx_dut $end
$var wire 1 , addr $end
$var wire 1 - wr_data $end
$var wire 1 . wr $end
$var wire 1 / rd $end
$var reg 1 0 tx_en $end
$var reg 8 1 tx_data [7:0] $end
$var wire 1 2 clk $end
$var wire 1 3 rst_n $end
$var reg 8 4 status [7:0] $end
$var reg 8 5 cmd [7:0] $end

$scope begin unnamed$$_0 $end
$upscope $end

$upscope $end

$upscope $end


$scope module uvm_pkg $end
$var time 64 6 setting_offset $end
$var reg 32 7 uvm_global_random_seed [31:0] $end
$var reg 32 8 UVM_UNBOUNDED_CONNECTIONS [31:0] $end
$var reg 1 9 uvm_start_uvm_declarations $end
$var reg 32 : setting_verbosity [31:0] $end
$var reg 1 ; is_verdi_set_verbosity_called $end
$upscope $end

$enddefinitions $end

#0
$dumpvars
0;
19
bxxxxxxxxxxxxxxxxxxxxxxxxxxxxxxxxxxxxxxxxxxxxxxxxxxxxxxxxxxxxxxxx 6
b11111111111111111111111111111111 8
b00000000000000000000000000000000 :
b01000010000001111100110001000111 7
0"
b00000000000000000000000000010000 !
r31.25000000000000  $
bxxxxxxxx )
bxxxxxxxx '
x0
bxxxxxxxx 5
bxxxxxxxx 1
bxxxxxxxx 4
x-
x,
02
x/
03
x.
0%
0#
x(
x+
x&
x*
$end
#31
1"
1%
12
#62
0"
0%
02
#93
1"
1%
12
#124
0"
0%
02
#155
1"
1%
12
#186
0"
0%
02
#217
1"
1%
12
0(
0,
b00000001 )
1-
1*
1.
#248
0"
0%
02
#279
1"
1%
12
0*
0.
b00000001 5
#310
0"
0%
02
#341
1"
1%
12
b00000000 5
#372
0"
0%
02
#403
1"
1%
12
10
1&
b11011110 1
b11011110 '
#434
0"
0%
02
#465
1"
1%
12
b10101101 1
b10101101 '
#496
0"
0%
02
#527
1"
1%
12
b00000101 1
b00000101 '
#558
0"
0%
02
#589
1"
1%
12
b00010000 1
b00010000 '
#620
0"
0%
02
#651
1"
1%
12
b00100000 1
b00100000 '
#682
0"
0%
02
#713
1"
1%
12
b00110000 1
b00110000 '
#744
0"
0%
02
#775
1"
1%
12
b01000000 1
b01000000 '
#806
0"
0%
02
#837
1"
1%
12
b01010000 1
b01010000 '
#868
0"
0%
02
#899
1"
1%
12
b10111110 1
b10111110 '
#930
0"
0%
02
#961
1"
1%
12
b11101111 1
b11101111 '
#992
0"
0%
02
#1023
1"
1%
12
00
0&
#1054
0"
0%
02
#1085
1"
1%
12
#1116
0"
0%
02
#1147
1"
1%
12
#1178
0"
0%
02
#1209
1"
1%
12
#1240
0"
0%
02
#1271
1"
1%
12
#1302
0"
0%
02
#1333
1"
1%
12
1*
1.
#1364
0"
0%
02
#1395
1"
1%
12
0*
0.
b00000001 5
#1426
0"
0%
02
#1457
1"
1%
12
b00000000 5
#1488
0"
0%
02
#1519
1"
1%
12
10
1&
b11011110 1
b11011110 '
#1550
0"
0%
02
#1581
1"
1%
12
b10101101 1
b10101101 '
#1612
0"
0%
02
#1643
1"
1%
12
b00000101 1
b00000101 '
#1674
0"
0%
02
#1705
1"
1%
12
b00010000 1
b00010000 '
#1736
0"
0%
02
#1767
1"
1%
12
b00100000 1
b00100000 '
#1798
0"
0%
02
#1829
1"
1%
12
b00110000 1
b00110000 '
#1860
0"
0%
02
#1891
1"
1%
12
b01000000 1
b01000000 '
#1922
0"
0%
02
#1953
1"
1%
12
b01010000 1
b01010000 '
#1984
0"
0%
02
#2015
1"
1%
12
b10111110 1
b10111110 '
#2046
0"
0%
02
#2077
1"
1%
12
b11101111 1
b11101111 '
#2108
0"
0%
02
#2139
1"
1%
12
00
0&
